,date,city,rent,product
0,2018-01-01,Batman,16,1922
1,2018-01-02,Batman,6,1243
2,2018-01-03,Mardin,10,1143
3,2018-01-04,Kocaeli,8,1128
4,2018-01-05,Malatya,9,1871
5,2018-01-06,Bolu,11,1942
6,2018-01-07,Şırnak,16,1879
7,2018-01-08,Zonguldak,8,1872
8,2018-01-09,Antalya,13,1413
9,2018-01-10,Rize,1,1883
10,2018-01-11,Ordu,9,1499
11,2018-01-12,Şırnak,7,1333
12,2018-01-13,Yalova,16,1088
13,2018-01-14,Kırşehir,10,1322
14,2018-01-15,Hatay,9,1667
15,2018-01-16,Edirne,6,1209
16,2018-01-17,Çanakkale,8,1599
17,2018-01-18,Şanlıurfa,11,1246
18,2018-01-19,Kırıkkale,15,1790
19,2018-01-20,Kayseri,13,1394
20,2018-01-21,Ardahan,11,1339
21,2018-01-22,Tunceli,3,1129
22,2018-01-23,Nevşehir,1,1323
23,2018-01-24,Trabzon,7,1423
24,2018-01-25,Amasya,6,1663
25,2018-01-26,Tokat,1,1872
26,2018-01-27,Gümüşhane,15,1948
27,2018-01-28,Düzce,3,1631
28,2018-01-29,Bilecik,7,1767
29,2018-01-30,Iğdır,5,1747
30,2018-01-31,Şırnak,15,1372
31,2018-02-01,Bursa,11,1767
32,2018-02-02,Erzurum,13,1251
33,2018-02-03,Niğde,13,1150
34,2018-02-04,Van,7,1579
35,2018-02-05,Niğde,10,1509
36,2018-02-06,Erzurum,17,1301
37,2018-02-07,Denizli,5,1870
38,2018-02-08,İstanbul,10,1456
39,2018-02-09,Osmaniye,2,1055
40,2018-02-10,Eskişehir,4,1182
41,2018-02-11,Artvin,2,1095
42,2018-02-12,Edirne,4,1882
43,2018-02-13,Kars,5,1434
44,2018-02-14,Sinop,5,1255
45,2018-02-15,Çorum,5,1341
46,2018-02-16,Tokat,10,1342
47,2018-02-17,Tokat,9,1544
48,2018-02-18,Aydın,17,1070
49,2018-02-19,Gümüşhane,15,1968
50,2018-02-20,Adana,12,1394
51,2018-02-21,Trabzon,1,1244
52,2018-02-22,Iğdır,4,1445
53,2018-02-23,Bingöl,1,1651
54,2018-02-24,Bartın,8,1207
55,2018-02-25,Çanakkale,17,1539
56,2018-02-26,Tokat,2,1554
57,2018-02-27,Eskişehir,9,1536
58,2018-02-28,Mardin,9,1858
59,2018-03-01,Nevşehir,10,1011
60,2018-03-02,Hatay,13,1394
61,2018-03-03,Şanlıurfa,8,1486
62,2018-03-04,Tunceli,10,1551
63,2018-03-05,Erzurum,14,1010
64,2018-03-06,Ordu,9,1831
65,2018-03-07,Uşak,16,1735
66,2018-03-08,Aksaray,9,1462
67,2018-03-09,Adana,14,1011
68,2018-03-10,Kayseri,12,1458
69,2018-03-11,Osmaniye,2,1182
70,2018-03-12,Kayseri,6,1318
71,2018-03-13,Isparta,5,1233
72,2018-03-14,Düzce,3,1840
73,2018-03-15,Bartın,9,1589
74,2018-03-16,Kırıkkale,4,1388
75,2018-03-17,Elazığ,7,1069
76,2018-03-18,Bingöl,5,1683
77,2018-03-19,Aksaray,14,1224
78,2018-03-20,Isparta,16,1948
79,2018-03-21,Uşak,16,1165
80,2018-03-22,Diyarbakır,10,1055
81,2018-03-23,Kırklareli,14,1747
82,2018-03-24,Elazığ,14,1396
83,2018-03-25,Konya,7,1627
84,2018-03-26,Bayburt,4,1305
85,2018-03-27,İstanbul,3,1331
86,2018-03-28,Bolu,8,1301
87,2018-03-29,Tokat,2,1365
88,2018-03-30,Şırnak,1,1957
89,2018-03-31,Muğla,16,1093
90,2018-04-01,Artvin,12,1250
91,2018-04-02,Kırıkkale,3,1842
92,2018-04-03,Van,14,1792
93,2018-04-04,Zonguldak,11,1499
94,2018-04-05,Tunceli,1,1669
95,2018-04-06,Kırklareli,6,1798
96,2018-04-07,Bolu,16,1477
97,2018-04-08,Yalova,16,1301
98,2018-04-09,Tokat,7,1835
99,2018-04-10,Giresun,8,1933
100,2018-04-11,Bitlis,16,1939
101,2018-04-12,Erzurum,11,1966
102,2018-04-13,Van,1,1026
103,2018-04-14,Sinop,17,1345
104,2018-04-15,Düzce,6,1013
105,2018-04-16,İstanbul,9,1180
106,2018-04-17,Edirne,17,1525
107,2018-04-18,Adana,10,1316
108,2018-04-19,Rize,5,1533
109,2018-04-20,Düzce,9,1739
110,2018-04-21,Erzincan,4,1409
111,2018-04-22,Çanakkale,9,1780
112,2018-04-23,Malatya,12,1442
113,2018-04-24,Osmaniye,5,1543
114,2018-04-25,Burdur,2,1648
115,2018-04-26,Düzce,7,1348
116,2018-04-27,Bolu,10,1600
117,2018-04-28,Aksaray,13,1544
118,2018-04-29,Kahramanmaraş,13,1587
119,2018-04-30,Muğla,3,1115
120,2018-05-01,Isparta,14,1500
121,2018-05-02,Antalya,12,1813
122,2018-05-03,Kilis,8,1109
123,2018-05-04,Antalya,2,1694
124,2018-05-05,Aydın,8,1799
125,2018-05-06,Kars,15,1167
126,2018-05-07,Aksaray,6,1897
127,2018-05-08,Gümüşhane,11,1280
128,2018-05-09,Uşak,4,1247
129,2018-05-10,Sivas,6,1932
130,2018-05-11,Erzincan,3,1331
131,2018-05-12,Konya,14,1350
132,2018-05-13,Samsun,10,1373
133,2018-05-14,Şanlıurfa,6,1511
134,2018-05-15,Iğdır,1,1798
135,2018-05-16,Edirne,13,1535
136,2018-05-17,Manisa,16,1980
137,2018-05-18,Bayburt,9,1107
138,2018-05-19,Tekirdağ,9,1210
139,2018-05-20,Gümüşhane,17,1520
140,2018-05-21,Yozgat,7,1413
141,2018-05-22,Elazığ,1,1720
142,2018-05-23,Eskişehir,17,1573
143,2018-05-24,Adana,13,1283
144,2018-05-25,Kilis,12,1302
145,2018-05-26,Burdur,7,1107
146,2018-05-27,Karabük,4,1399
147,2018-05-28,Tekirdağ,9,1467
148,2018-05-29,Kırşehir,1,1019
149,2018-05-30,Hatay,10,1874
150,2018-05-31,Adana,4,1410
151,2018-06-01,Aksaray,5,1036
152,2018-06-02,Artvin,15,1485
153,2018-06-03,İçel (Mersin),16,1461
154,2018-06-04,Yozgat,10,1433
155,2018-06-05,Gaziantep,10,1533
156,2018-06-06,Şırnak,8,1983
157,2018-06-07,Bilecik,1,1920
158,2018-06-08,Kilis,3,1400
159,2018-06-09,Iğdır,10,1900
160,2018-06-10,Hatay,10,1665
161,2018-06-11,Gaziantep,6,1097
162,2018-06-12,Kırklareli,14,1390
163,2018-06-13,Yozgat,5,1481
164,2018-06-14,Manisa,7,1613
165,2018-06-15,Gaziantep,10,1886
166,2018-06-16,Afyon,11,1532
167,2018-06-17,İçel (Mersin),10,1175
168,2018-06-18,Hakkari,4,1342
169,2018-06-19,İzmir,16,1376
170,2018-06-20,Bartın,7,1595
171,2018-06-21,Kayseri,13,1232
172,2018-06-22,Çanakkale,17,1830
173,2018-06-23,Kahramanmaraş,15,1872
174,2018-06-24,Kayseri,7,1947
175,2018-06-25,Trabzon,14,1190
176,2018-06-26,Kütahya,13,1028
177,2018-06-27,Hakkari,5,1945
178,2018-06-28,Kırklareli,16,1179
179,2018-06-29,Uşak,13,1554
180,2018-06-30,Afyon,3,1519
181,2018-07-01,Çankırı,7,1608
182,2018-07-02,Kocaeli,4,1716
183,2018-07-03,Aydın,13,1928
184,2018-07-04,Tokat,13,1380
185,2018-07-05,Ordu,4,1313
186,2018-07-06,İstanbul,4,1610
187,2018-07-07,Bursa,11,1886
188,2018-07-08,Düzce,2,1473
189,2018-07-09,Bolu,8,1257
190,2018-07-10,Elazığ,15,1911
191,2018-07-11,Mardin,6,1694
192,2018-07-12,Kayseri,3,1591
193,2018-07-13,Sinop,2,1535
194,2018-07-14,Karaman,16,1875
195,2018-07-15,Burdur,9,1300
196,2018-07-16,Balıkesir,12,1442
197,2018-07-17,Ardahan,6,1586
198,2018-07-18,Edirne,15,1304
199,2018-07-19,Van,8,1381
200,2018-07-20,Tunceli,16,1783
201,2018-07-21,Siirt,15,1322
202,2018-07-22,Zonguldak,2,1346
203,2018-07-23,Osmaniye,15,1612
204,2018-07-24,Diyarbakır,13,1448
205,2018-07-25,Ankara,8,1535
206,2018-07-26,İzmir,17,1946
207,2018-07-27,Kars,11,1221
208,2018-07-28,Muğla,13,1202
209,2018-07-29,Afyon,10,1299
210,2018-07-30,Mardin,8,1369
211,2018-07-31,Elazığ,16,1234
212,2018-08-01,Artvin,6,1139
213,2018-08-02,Trabzon,11,1861
214,2018-08-03,Gümüşhane,4,1501
215,2018-08-04,Uşak,10,1069
216,2018-08-05,Bilecik,15,1874
217,2018-08-06,Ordu,7,1612
218,2018-08-07,Erzincan,3,1297
219,2018-08-08,Ordu,7,1987
220,2018-08-09,Ordu,8,1763
221,2018-08-10,Kütahya,10,1675
222,2018-08-11,Karaman,8,1890
223,2018-08-12,Bitlis,4,1131
224,2018-08-13,Tunceli,10,1564
225,2018-08-14,Elazığ,6,1105
226,2018-08-15,İçel (Mersin),9,1923
227,2018-08-16,Bilecik,16,1445
228,2018-08-17,Karaman,8,1364
229,2018-08-18,Ardahan,11,1786
230,2018-08-19,Osmaniye,8,1871
231,2018-08-20,Muş,3,1628
232,2018-08-21,Kahramanmaraş,6,1866
233,2018-08-22,Balıkesir,3,1036
234,2018-08-23,Kırşehir,17,1053
235,2018-08-24,Eskişehir,3,1325
236,2018-08-25,Ardahan,15,1698
237,2018-08-26,Bursa,6,1379
238,2018-08-27,Amasya,17,1010
239,2018-08-28,İçel (Mersin),2,1307
240,2018-08-29,Konya,11,1308
241,2018-08-30,Bilecik,1,1421
242,2018-08-31,Siirt,8,1619
243,2018-09-01,Giresun,5,1707
244,2018-09-02,Erzincan,10,1345
245,2018-09-03,İçel (Mersin),9,1168
246,2018-09-04,Bingöl,3,1493
247,2018-09-05,Kırklareli,10,1153
248,2018-09-06,Karabük,7,1775
249,2018-09-07,Siirt,15,1139
250,2018-09-08,Şanlıurfa,7,1026
251,2018-09-09,Elazığ,6,1177
252,2018-09-10,Edirne,17,1308
253,2018-09-11,Amasya,16,1833
254,2018-09-12,Kastamonu,8,1168
255,2018-09-13,Bartın,10,1342
256,2018-09-14,Aksaray,8,1041
257,2018-09-15,Samsun,11,1922
258,2018-09-16,Sinop,15,1616
259,2018-09-17,Kocaeli,14,1606
260,2018-09-18,Gaziantep,7,1186
261,2018-09-19,Konya,2,1490
262,2018-09-20,Konya,1,1654
263,2018-09-21,Samsun,15,1541
264,2018-09-22,Kastamonu,6,1017
265,2018-09-23,Kayseri,7,1303
266,2018-09-24,Adana,15,1019
267,2018-09-25,Kilis,1,1671
268,2018-09-26,Balıkesir,3,1876
269,2018-09-27,Rize,14,1421
270,2018-09-28,İçel (Mersin),6,1324
271,2018-09-29,Trabzon,5,1711
272,2018-09-30,Nevşehir,17,1108
273,2018-10-01,Diyarbakır,13,1101
274,2018-10-02,Elazığ,13,1521
275,2018-10-03,İçel (Mersin),3,1926
276,2018-10-04,Trabzon,4,1556
277,2018-10-05,Kocaeli,9,1074
278,2018-10-06,Trabzon,2,1101
279,2018-10-07,Giresun,5,1818
280,2018-10-08,Manisa,15,1878
281,2018-10-09,Elazığ,10,1757
282,2018-10-10,Tunceli,9,1171
283,2018-10-11,İstanbul,12,1155
284,2018-10-12,Tokat,10,1111
285,2018-10-13,Siirt,12,1838
286,2018-10-14,Muş,10,1063
287,2018-10-15,Düzce,2,1008
288,2018-10-16,Kastamonu,8,1318
289,2018-10-17,Artvin,13,1447
290,2018-10-18,Kars,17,1657
291,2018-10-19,Bolu,8,1034
292,2018-10-20,Bayburt,2,1510
293,2018-10-21,Osmaniye,6,1631
294,2018-10-22,Kırıkkale,8,1187
295,2018-10-23,Van,5,1963
296,2018-10-24,Samsun,6,1491
297,2018-10-25,Erzurum,17,1173
298,2018-10-26,Burdur,17,1130
299,2018-10-27,Rize,4,1319
300,2018-10-28,Zonguldak,7,1245
301,2018-10-29,Kilis,7,1323
302,2018-10-30,Ordu,8,1380
303,2018-10-31,Samsun,12,1832
304,2018-11-01,Yalova,10,1488
305,2018-11-02,Sakarya,5,1668
306,2018-11-03,Ağrı,3,1908
307,2018-11-04,Bolu,13,1367
308,2018-11-05,Hatay,6,1637
309,2018-11-06,Edirne,3,1948
310,2018-11-07,Kütahya,14,1174
311,2018-11-08,Tokat,5,1924
312,2018-11-09,Amasya,6,1289
313,2018-11-10,Ağrı,15,1601
314,2018-11-11,Adıyaman,9,1166
315,2018-11-12,Gaziantep,2,1765
316,2018-11-13,Adıyaman,5,1807
317,2018-11-14,Batman,13,1307
318,2018-11-15,Kars,15,1917
319,2018-11-16,Aksaray,2,1507
320,2018-11-17,Afyon,1,1817
321,2018-11-18,Şanlıurfa,8,1160
322,2018-11-19,Şanlıurfa,9,1294
323,2018-11-20,Osmaniye,10,1362
324,2018-11-21,Afyon,6,1973
325,2018-11-22,Karabük,7,1071
326,2018-11-23,Ardahan,6,1105
327,2018-11-24,Amasya,14,1638
328,2018-11-25,Giresun,13,1653
329,2018-11-26,Samsun,9,1041
330,2018-11-27,Antalya,7,1581
331,2018-11-28,Kırıkkale,14,1783
332,2018-11-29,Şanlıurfa,16,1678
333,2018-11-30,Hatay,6,1382
334,2018-12-01,Karaman,17,1538
335,2018-12-02,Bitlis,9,1295
336,2018-12-03,Erzincan,17,1088
337,2018-12-04,Kars,10,1342
338,2018-12-05,Ağrı,6,1035
339,2018-12-06,Şırnak,16,1619
340,2018-12-07,Çorum,16,1165
341,2018-12-08,Diyarbakır,7,1617
342,2018-12-09,Şanlıurfa,8,1455
343,2018-12-10,İçel (Mersin),16,1482
344,2018-12-11,Rize,11,1103
345,2018-12-12,Karabük,3,1955
346,2018-12-13,Bayburt,17,1337
347,2018-12-14,Kırşehir,5,1790
348,2018-12-15,Bolu,17,1652
349,2018-12-16,Kırıkkale,9,1238
350,2018-12-17,Kars,7,1075
351,2018-12-18,Yalova,16,1404
352,2018-12-19,Balıkesir,7,1449
353,2018-12-20,Bolu,8,1426
354,2018-12-21,Kırıkkale,2,1335
355,2018-12-22,Hakkari,16,1223
356,2018-12-23,Denizli,8,1816
357,2018-12-24,Kilis,10,1590
358,2018-12-25,Bingöl,7,1353
359,2018-12-26,Karaman,9,1714
360,2018-12-27,Kocaeli,13,1417
361,2018-12-28,Konya,8,1192
362,2018-12-29,Samsun,8,1027
363,2018-12-30,Kars,2,1518
